…
<img src="cross_validation_files/figure-gfm/unnamed-chunk-1-1.png" width="90%" />

Create splits by hand; plot; fit some models;

``` r
train_df = sample_n(nonlin_df, 80)
test_df = anti_join(nonlin_df, train_df, by = "id")

train_df %>% arrange(id)
```

    ## # A tibble: 80 × 3
    ##       id      x       y
    ##    <int>  <dbl>   <dbl>
    ##  1     1 0.266   1.11  
    ##  2     2 0.372   0.764 
    ##  3     3 0.573   0.358 
    ##  4     4 0.908  -3.04  
    ##  5     5 0.202   1.33  
    ##  6     6 0.898  -1.99  
    ##  7     7 0.945  -3.27  
    ##  8     9 0.629   0.0878
    ##  9    10 0.0618  0.392 
    ## 10    11 0.206   1.63  
    ## # … with 70 more rows
…
